1.000000000000000000e+00 1.692599999999999909e+03 1.675000000000000000e+03 6.227872831071617554e+01
5.000000000000000000e+00 2.597599999999999909e+03 2.614500000000000000e+03 5.765622256096908416e+01
1.000000000000000000e+01 3.449500000000000000e+03 3.467500000000000000e+03 8.350958028873094463e+01
1.500000000000000000e+01 4.105300000000000182e+03 4.093500000000000000e+03 1.269669642072299069e+02
2.000000000000000000e+01 4.669199999999999818e+03 4.656000000000000000e+03 8.823582039058740634e+01
2.500000000000000000e+01 5.036399999999999636e+03 5.035500000000000000e+03 5.251704485212396634e+01
3.000000000000000000e+01 5.141100000000000364e+03 5.140500000000000000e+03 3.755382803390354951e+01
3.500000000000000000e+01 5.154899999999999636e+03 5.165500000000000000e+03 6.837024206480478483e+01
4.000000000000000000e+01 5.173899999999999636e+03 5.176000000000000000e+03 4.044613702197034399e+01
4.500000000000000000e+01 5.146500000000000000e+03 5.140000000000000000e+03 3.685172994582480044e+01
5.000000000000000000e+01 5.184300000000000182e+03 5.169000000000000000e+03 4.918749841168993697e+01
5.500000000000000000e+01 5.148100000000000364e+03 5.143000000000000000e+03 4.075401820679772413e+01
6.000000000000000000e+01 5.180500000000000000e+03 5.188500000000000000e+03 3.951012528453940575e+01
6.500000000000000000e+01 5.180199999999999818e+03 5.172000000000000000e+03 4.370080090799251593e+01
7.000000000000000000e+01 5.169699999999999818e+03 5.167000000000000000e+03 7.397979453877931633e+01
7.500000000000000000e+01 5.169800000000000182e+03 5.178000000000000000e+03 2.157683943491261402e+01
8.000000000000000000e+01 5.179899999999999636e+03 5.186500000000000000e+03 4.996088469993299697e+01
8.500000000000000000e+01 5.172500000000000000e+03 5.176500000000000000e+03 3.741724201487865287e+01
9.000000000000000000e+01 5.145600000000000364e+03 5.122000000000000000e+03 7.185012178138600802e+01
9.500000000000000000e+01 5.183800000000000182e+03 5.167000000000000000e+03 4.370537724353835074e+01
