1.000000000000000021e-02 3.566099999999999909e+03 3.578000000000000000e+03 4.737393798281919999e+01
5.000000000000000278e-02 3.467000000000000000e+03 3.471000000000000000e+03 7.651535793551514075e+01
1.000000000000000056e-01 3.462199999999999818e+03 3.449000000000000000e+03 9.579331918249832256e+01
1.499999999999999944e-01 3.355300000000000182e+03 3.341000000000000000e+03 6.700007462682410164e+01
2.000000000000000111e-01 3.411099999999999909e+03 3.435000000000000000e+03 7.259125291658767765e+01
2.500000000000000000e-01 3.401699999999999818e+03 3.392000000000000000e+03 7.200840228751087579e+01
2.999999999999999889e-01 3.480000000000000000e+03 3.501000000000000000e+03 6.024450182381791308e+01
3.500000000000000333e-01 3.462300000000000182e+03 3.461000000000000000e+03 6.879251412762873485e+01
4.000000000000000222e-01 3.417400000000000091e+03 3.407000000000000000e+03 4.537003416353132934e+01
4.500000000000000111e-01 3.463400000000000091e+03 3.463500000000000000e+03 6.947546329460494974e+01
5.000000000000000000e-01 3.469800000000000182e+03 3.473000000000000000e+03 7.492502919585683685e+01
5.500000000000000444e-01 3.370300000000000182e+03 3.383500000000000000e+03 6.841790701271122543e+01
5.999999999999999778e-01 3.454900000000000091e+03 3.437000000000000000e+03 7.168744659980573886e+01
6.500000000000000222e-01 3.511300000000000182e+03 3.504000000000000000e+03 7.116466819988694681e+01
7.000000000000000666e-01 3.470300000000000182e+03 3.458000000000000000e+03 5.128947260403445085e+01
7.500000000000000000e-01 3.503099999999999909e+03 3.512000000000000000e+03 6.560403950977409693e+01
8.000000000000000444e-01 3.480699999999999818e+03 3.518000000000000000e+03 9.589791447158796700e+01
8.499999999999999778e-01 3.491500000000000000e+03 3.498000000000000000e+03 8.508965859609497784e+01
9.000000000000000222e-01 3.514599999999999909e+03 3.529500000000000000e+03 5.317743882512583298e+01
9.500000000000000666e-01 3.550400000000000091e+03 3.555500000000000000e+03 5.533389557947280935e+01
