# prob of deer, Average time for all cars to exit, Median Time for all cars to exit, standard error
1.000000000000000021e-02 1.104789999999999964e+03 1.105000000000000000e+03 1.704670056051903249e+00
2.000000000000000042e-02 1.108680000000000064e+03 1.108500000000000000e+03 2.288580345978703523e+00
2.999999999999999889e-02 1.112640000000000100e+03 1.113000000000000000e+03 3.254289476982648477e+00
4.000000000000000083e-02 1.115460000000000036e+03 1.115500000000000000e+03 3.456645773000178501e+00
5.000000000000000278e-02 1.119890000000000100e+03 1.120000000000000000e+03 4.547295899762846538e+00
5.999999999999999778e-02 1.122450000000000045e+03 1.122000000000000000e+03 4.526311964502668594e+00
7.000000000000000666e-02 1.127319999999999936e+03 1.128000000000000000e+03 5.606924290553600088e+00
8.000000000000000167e-02 1.129710000000000036e+03 1.129000000000000000e+03 5.704901401426671903e+00
8.999999999999999667e-02 1.134630000000000109e+03 1.134000000000000000e+03 5.577911795645392523e+00
1.000000000000000056e-01 1.136880000000000109e+03 1.137000000000000000e+03 5.398666502016957303e+00
1.499999999999999944e-01 1.154319999999999936e+03 1.154000000000000000e+03 6.875870853935523108e+00
2.000000000000000111e-01 1.170160000000000082e+03 1.169000000000000000e+03 7.930598968552124539e+00
2.500000000000000000e-01 1.187190000000000055e+03 1.186000000000000000e+03 8.262802188119961144e+00
2.999999999999999889e-01 1.201670000000000073e+03 1.201000000000000000e+03 7.475366211765146929e+00
3.499999999999999778e-01 1.215690000000000055e+03 1.215500000000000000e+03 7.492256002033032658e+00
4.000000000000000222e-01 1.231150000000000091e+03 1.231000000000000000e+03 6.068566552325187047e+00
